Advanced Program and Policy Evaluation (HPOL8539) - Simulate DID Data
…
## NEED TO GET RID OF ONE MORE CATEGORY (1998 x 1980)
#2c  jwdid  dep_var , ivar(unit) tvar(year) gvar(treatment_time) group never
fmla2c <- as.formula(glue("dep_var ~ {paste0(grep('i_1_',colnames(df_etwfe6b_nt),value=TRUE),collapse = '+')} | treatment_time + year"))
fit2c <- feols(fmla2c,df_etwfe6b_nt)
est2c <- 
  tidy(fit2c) %>% 
  separate(term, into =c("tmp","tmp2","group","year"))  %>% 
  mutate(att = estimate) %>% 
  select(group, year , att) %>% 
  mutate(estimator = "ETWFE - NT Cx - Group FE") %>% 
  mutate_at(vars(group,year), as.numeric); est2c

# A tibble: 70 × 4
   group  year      att estimator               
   <dbl> <dbl>    <dbl> <chr>                   
 1  1989  1981  0.0457  ETWFE - NT Cx - Group FE
 2  1989  1982  0.0105  ETWFE - NT Cx - Group FE
 3  1989  1983 -0.0485  ETWFE - NT Cx - Group FE
 4  1989  1984  0.00327 ETWFE - NT Cx - Group FE
 5  1989  1985  0.0404  ETWFE - NT Cx - Group FE
 6  1989  1986  0.0488  ETWFE - NT Cx - Group FE
 7  1989  1987  0.0339  ETWFE - NT Cx - Group FE
 8  1989  1988  0.0729  ETWFE - NT Cx - Group FE
 9  1989  1989  0.551   ETWFE - NT Cx - Group FE
10  1989  1990  1.07    ETWFE - NT Cx - Group FE
# … with 60 more rows
# ℹ Use `print(n = ...)` to see more rows

#2d jwdid  dep_var , ivar(unit) tvar(year) gvar(treatment_time) never !!!! THIS ONE SEEMS TO BE WRONG IN STATA ... 
fmla2d <- as.formula(glue("dep_var ~ {paste0(grep('i_1_',colnames(df_etwfe6b_nt),value=TRUE),collapse = '+')} | unit + year"))
fit2d <- feols(fmla2d,df_etwfe6b_nt %>% mutate(unit = factor(unit)))
est2d <- 
  tidy(fit2d) %>% 
  separate(term, into =c("tmp","tmp2","group","year"))  %>% 
  mutate(att = estimate) %>% 
  select(group, year , att) %>% 
  mutate(estimator = "ETWFE - NT Cx - Unit FE") %>% 
  mutate_at(vars(group,year), as.numeric); est2d

# A tibble: 70 × 4
   group  year   att estimator              
   <dbl> <dbl> <dbl> <chr>                  
 1  1989  1981 -2.13 ETWFE - NT Cx - Unit FE
 2  1989  1982 -2.17 ETWFE - NT Cx - Unit FE
 3  1989  1983 -2.22 ETWFE - NT Cx - Unit FE
 4  1989  1984 -2.17 ETWFE - NT Cx - Unit FE
 5  1989  1985 -2.14 ETWFE - NT Cx - Unit FE
 6  1989  1986 -2.13 ETWFE - NT Cx - Unit FE
 7  1989  1987 -2.14 ETWFE - NT Cx - Unit FE
 8  1989  1988 -2.10 ETWFE - NT Cx - Unit FE
 9  1989  1989 -1.62 ETWFE - NT Cx - Unit FE
10  1989  1990 -1.10 ETWFE - NT Cx - Unit FE
# … with 60 more rows
# ℹ Use `print(n = ...)` to see more rows
…
